# Fdb version 3
["pdflatex"] 1554577082 "c:/dev/resume/kramer_resume_2019.tex" "c:/dev/resume/kramer_resume_2019.pdf" "kramer_resume_2019" 1554577082
  "C:/Program Files/MiKTeX 2.9/fonts/tfm/public/cm/cmbcsc10.tfm" 1136768653 1308 a7b91eb66ab5d09c7d0d0595df28a6f6 ""
  "C:/Program Files/MiKTeX 2.9/fonts/tfm/public/cm/cmbx10.tfm" 1136768653 1328 c834bbb027764024c09d3d2bf908b5f0 ""
  "C:/Program Files/MiKTeX 2.9/fonts/tfm/public/cm/cmbx12.tfm" 1136768653 1324 c910af8c371558dc20f2d7822f66fe64 ""
  "C:/Program Files/MiKTeX 2.9/fonts/tfm/public/cm/cmbx8.tfm" 1136768653 1332 1fde11373e221473104d6cc5993f046e ""
  "C:/Program Files/MiKTeX 2.9/fonts/tfm/public/cm/cmmi10.tfm" 1136768653 1528 abec98dbc43e172678c11b3b9031252a ""
  "C:/Program Files/MiKTeX 2.9/fonts/tfm/public/cm/cmmi6.tfm" 1136768653 1512 f21f83efb36853c0b70002322c1ab3ad ""
  "C:/Program Files/MiKTeX 2.9/fonts/tfm/public/cm/cmmi8.tfm" 1136768653 1520 eccf95517727cb11801f4f1aee3a21b4 ""
  "C:/Program Files/MiKTeX 2.9/fonts/tfm/public/cm/cmr10.tfm" 1136768653 1296 45809c5a464d5f32c8f98ba97c1bb47f ""
  "C:/Program Files/MiKTeX 2.9/fonts/tfm/public/cm/cmr12.tfm" 1136768653 1288 655e228510b4c2a1abe905c368440826 ""
  "C:/Program Files/MiKTeX 2.9/fonts/tfm/public/cm/cmr6.tfm" 1136768653 1300 b62933e007d01cfd073f79b963c01526 ""
  "C:/Program Files/MiKTeX 2.9/fonts/tfm/public/cm/cmr8.tfm" 1136768653 1292 21c1c5bfeaebccffdb478fd231a0997d ""
  "C:/Program Files/MiKTeX 2.9/fonts/tfm/public/cm/cmsy10.tfm" 1136768653 1124 6c73e740cf17375f03eec0ee63599741 ""
  "C:/Program Files/MiKTeX 2.9/fonts/tfm/public/cm/cmsy6.tfm" 1136768653 1116 933a60c408fc0a863a92debe84b2d294 ""
  "C:/Program Files/MiKTeX 2.9/fonts/tfm/public/cm/cmsy8.tfm" 1136768653 1120 8b7d695260f3cff42e636090a8002094 ""
  "C:/Program Files/MiKTeX 2.9/fonts/tfm/public/cm/cmti10.tfm" 1136768653 1480 aa8e34af0eb6a2941b776984cf1dfdc4 ""
  "C:/Program Files/MiKTeX 2.9/fonts/type1/public/amsfonts/cm/cmbx10.pfb" 1247596666 34811 78b52f49e893bcba91bd7581cdc144c0 ""
  "C:/Program Files/MiKTeX 2.9/fonts/type1/public/amsfonts/cm/cmbx8.pfb" 1247596666 32166 b0c356b15f19587482a9217ce1d8fa67 ""
  "C:/Program Files/MiKTeX 2.9/fonts/type1/public/amsfonts/cm/cmr10.pfb" 1247596667 35752 024fb6c41858982481f6968b5fc26508 ""
  "C:/Program Files/MiKTeX 2.9/fonts/type1/public/amsfonts/cm/cmsy10.pfb" 1247596667 32569 5e5ddc8df908dea60932f3c484a54c0d ""
  "C:/Program Files/MiKTeX 2.9/fonts/type1/public/amsfonts/cm/cmti10.pfb" 1247596667 37944 359e864bd06cde3b1cf57bb20757fb06 ""
  "C:/Program Files/MiKTeX 2.9/tex/generic/ifxetex/ifxetex.sty" 1284260789 1458 43ab4710dc82f3edeabecd0d099626b2 ""
  "C:/Program Files/MiKTeX 2.9/tex/generic/oberdiek/etexcmds.sty" 1543584678 7612 729a8cc22a1ee0029997c7f74717ae05 ""
  "C:/Program Files/MiKTeX 2.9/tex/generic/oberdiek/ifluatex.sty" 1543584679 7324 2310d1247db0114eb4726807c8837a0e ""
  "C:/Program Files/MiKTeX 2.9/tex/generic/oberdiek/ifpdf.sty" 1543584679 1300 96620a7d94bc0ceb261d968770ce8315 ""
  "C:/Program Files/MiKTeX 2.9/tex/generic/oberdiek/ifvtex.sty" 1543584679 6797 90b7f83b0ad46826bc16058b1e3d48df ""
  "C:/Program Files/MiKTeX 2.9/tex/generic/oberdiek/infwarerr.sty" 1543584679 8253 473e0e41f9adadb1977e8631b8f72ea6 ""
  "C:/Program Files/MiKTeX 2.9/tex/generic/oberdiek/kvsetkeys.sty" 1543584679 14040 ac8866aac45982ac84021584b0abb252 ""
  "C:/Program Files/MiKTeX 2.9/tex/generic/oberdiek/ltxcmds.sty" 1543584679 18425 5b3c0c59d76fac78978b5558e83c1f36 ""
  "C:/Program Files/MiKTeX 2.9/tex/latex/base/article.cls" 1544474704 19933 3097d1b31d3c45dc957096f554529032 ""
  "C:/Program Files/MiKTeX 2.9/tex/latex/base/ifthen.sty" 1544474710 5161 c004ea5a189d4bdcf42e86754ad75a58 ""
  "C:/Program Files/MiKTeX 2.9/tex/latex/base/size11.clo" 1544474702 8310 3be7fb8fac17ab8f3f822aa0c9800815 ""
  "C:/Program Files/MiKTeX 2.9/tex/latex/bold-extra/bold-extra.sty" 1266354029 1923 d0cfef8b32c8df31c8dc244f7e40f3dc ""
  "C:/Program Files/MiKTeX 2.9/tex/latex/etoolbox/etoolbox.sty" 1534668264 43865 f83cc2fa3767abdb988c7d2cd17c02bf ""
  "C:/Program Files/MiKTeX 2.9/tex/latex/geometry/geometry.cfg" 1526151849 1099 b6078cb9f5824f08d323a859b6eb16e5 ""
  "C:/Program Files/MiKTeX 2.9/tex/latex/geometry/geometry.sty" 1526151849 42805 0653033a985e06c69a2a9cea9a95e31a ""
  "C:/Program Files/MiKTeX 2.9/tex/latex/graphics/keyval.sty" 1523175985 2678 6404d0c7d28505fb38ce0d86c2e28ae7 ""
  "C:/Program Files/MiKTeX 2.9/tex/latex/koma-script/scrbase.sty" 1549012420 81085 17c6bc778d65581878b7ff0b0753fb77 ""
  "C:/Program Files/MiKTeX 2.9/tex/latex/koma-script/scrextend.sty" 1549012420 55039 686ca5bdfab84bdc1df0a34a077dee24 ""
  "C:/Program Files/MiKTeX 2.9/tex/latex/koma-script/scrkbase.sty" 1549012420 22023 79a694d8a1bcff7a7bc417d04572bae5 ""
  "C:/Program Files/MiKTeX 2.9/tex/latex/koma-script/scrlfile.sty" 1549012420 15778 6cd4024c756f36926e3648af5491b355 ""
  "C:/Program Files/MiKTeX 2.9/tex/latex/oberdiek/kvoptions.sty" 1543584690 22417 1d9df1eb66848aa31b18a593099cf45c ""
  "C:/Program Files/MiKTeX 2.9/tex/latex/parskip/parskip.sty" 1547922246 4273 3f6e512e6999979e82f39978a3e61b9e ""
  "C:/Program Files/MiKTeX 2.9/tex/latex/tools/array.sty" 1546712198 12527 31ab547f6520657998ecf91709f950ac ""
  "C:/Users/antho/AppData/Local/MiKTeX/2.9/fonts/pk/ljfour/public/cm/dpi1493/cmbcsc10.pk" 1554523589 33492 222c76bc81e04291e0da21464c9467a5 ""
  "C:/Users/antho/AppData/Local/MiKTeX/2.9/fonts/pk/ljfour/public/cm/dpi864/cmbcsc10.pk" 1554523635 17564 efd574ced84cf0eb7c77e0e392d31423 ""
  "C:/Users/antho/AppData/Local/MiKTeX/2.9/miktex/data/le/pdftex/pdflatex.fmt" 1554517049 4158138 c7d042cb4336303d2f5809173a47dbf1 ""
  "C:/Users/antho/AppData/Local/MiKTeX/2.9/pdftex/config/pdftex.map" 1554516998 80453 73224248f0a73acd005b5611945eaaa6 ""
  "c:/dev/resume/kramer_resume_2019.aux" 1554577082 46 dc97af5c6f573c3ca8db466309c44817 ""
  "c:/dev/resume/kramer_resume_2019.tex" 1554577081 9435 d30c7e95baff73ba9368c1a7aa38556b ""
  "kramer_resume_2019.aux" 1554577082 46 dc97af5c6f573c3ca8db466309c44817 "pdflatex"
  "kramer_resume_2019.tex" 1554577081 9435 d30c7e95baff73ba9368c1a7aa38556b ""
  "resume.cls" 1554524677 4967 0b646120aa73a7cc05bd07014f6a4b62 ""
  (generated)
  "kramer_resume_2019.pdf"
  "kramer_resume_2019.aux"
  "c:/dev/resume/kramer_resume_2019.log"
  "c:/dev/resume/kramer_resume_2019.pdf"
  "kramer_resume_2019.log"
